testbench/tc/xsim.log
#-----------------------------------------------------------
# xsim v2022.1 (64-bit)
# SW Build 3526262 on Mon Apr 18 15:47:01 MDT 2022
# IP Build 3524634 on Mon Apr 18 20:55:01 MDT 2022
# Start of session at: Sat Mar 16 04:10:03 2024
# Process ID: 13363
# Current directory: /home/ubuntu/ASoC/Lab1_fsic-sim/fsic_fpga/rtl/user/testbench/tc
# Command line: xsim -mode tcl -source {xsim.dir/tb_fsic_xelab/xsim_script.tcl}
# Log file: /home/ubuntu/ASoC/Lab1_fsic-sim/fsic_fpga/rtl/user/testbench/tc/xsim.log
# Journal file: /home/ubuntu/ASoC/Lab1_fsic-sim/fsic_fpga/rtl/user/testbench/tc/xsim.jou
# Running On: ubuntu2004, OS: Linux, CPU Frequency: 2904.002 MHz, CPU Physical cores: 2, Host memory: 10425 MB
#-----------------------------------------------------------
source xsim.dir/tb_fsic_xelab/xsim_script.tcl
# xsim {tb_fsic_xelab} -autoloadwcfg -tclbatch {log_wave.tcl}
Time resolution is 1 ps
open_wave_config /home/ubuntu/ASoC/Lab1_fsic-sim/fsic_fpga/rtl/user/testbench/tc/tb_fsic_xelab.wcfg
WARNING: Simulation object /tb_fsic/dut/U_MPRJ_IO0/vccd1 was not found in the design.
WARNING: Simulation object /tb_fsic/dut/U_MPRJ_IO0/vccd2 was not found in the design.
WARNING: Simulation object /tb_fsic/dut/U_MPRJ_IO0/vssd1 was not found in the design.
WARNING: Simulation object /tb_fsic/dut/U_MPRJ_IO0/vssd2 was not found in the design.
WARNING: Simulation object /tb_fsic/vccd1 was not found in the design.
WARNING: Simulation object /tb_fsic/vccd2 was not found in the design.
WARNING: Simulation object /tb_fsic/vssd1 was not found in the design.
WARNING: Simulation object /tb_fsic/vssd2 was not found in the design.
WARNING: Simulation object /tb_fsic/dut/AXIS_SW0/pre_rd_ptr_reg was not found in the design.
WARNING: Simulation object /tb_fsic/dut/AXIS_SW0/as_up_tvalid_reg was not found in the design.
WARNING: Simulation object /tb_fsic/dut/AXIS_SW0/as_aa_tvalid_reg was not found in the design.
WARNING: Simulation object /tb_fsic/dut/AXIS_SW0/delaynext was not found in the design.
WARNING: Simulation object /tb_fsic/dut/AXIS_SW0/pre_m_axis was not found in the design.
WARNING: Simulation object /tb_fsic/dut/AXIS_SW0/as_up_tvalid_reg was not found in the design.
WARNING: Simulation object /tb_fsic/dut/AXIS_SW0/pre_rd_ptr_reg was not found in the design.
WARNING: Simulation object /tb_fsic/dut/AXIS_SW0/as_up_tvalid_reg was not found in the design.
WARNING: Simulation object /tb_fsic/dut/AXIS_SW0/as_aa_tvalid_reg was not found in the design.
WARNING: Simulation object /tb_fsic/dut/AXIS_SW0/delaynext was not found in the design.
WARNING: Simulation object /tb_fsic/dut/AXIS_SW0/pre_m_axis was not found in the design.
source log_wave.tcl
## log_wave -quiet -verbose -recursive *
## run all
test000: soc cfg user_prj_sel write/read test
                 140=> soc POR Assert
                 180=> soc POR De-Assert
                 260=> fpga POR Assert
                 260=> fpga reset Assert
                 300=> fpga POR De-Assert
                 340=> fpga reset De-Assert
cc_soc_cfg_user_prj_sel: soc cfg user_prj_sel read/write test
                 565=> soc_cc_cfg_write : wbs_adr=30005000, wbs_sel=1111, wbs_wdata=00000001
                 805=> soc_cc_cfg_read : wbs_adr=30005000, wbs_sel=1111
                 805=> soc wishbone read data result : send soc_cfg_read_event
                 805=> soc_cc_cfg_read : got soc_cfg_read_event
                 805=> cc_soc_cfg_user_prj_sel [PASS] cfg_read_data_expect_value=00000001, cfg_read_data_captured=00000001
-----------------
cc_soc_cfg_user_prj_sel: soc cfg user_prj_sel read/write test - end
--------------------------------------------------------------------
test_2: FIR initialization from FPGA side
                 925=> fpga_as_to_is_init done
                 965=> fpga_cfg_write : fpga_axi_awaddr=0000, fpga_axi_awvalid=1, fpga_axi_awready=1, fpga_axi_wdata=00000001, axi_wstrb=1, fpga_axi_wvalid=1, fpga_axi_wready=1
                1165=> soc_is_cfg_write : wbs_adr=30003000, wbs_sel=0001, wbs_wdata=00000001
                1165=> soc rxen_ctl=1
                1165=> fpga rxen_ctl=1
                1605=> fpga_cfg_write : fpga_axi_awaddr=0000, fpga_axi_awvalid=1, fpga_axi_awready=1, fpga_axi_wdata=00000003, axi_wstrb=1, fpga_axi_wvalid=1, fpga_axi_wready=1
                1765=> soc_is_cfg_write : wbs_adr=30003000, wbs_sel=0001, wbs_wdata=00000003
                1765=> soc txen_ctl=1
                1765=> fpga txen_ctl=1
                2205=> fpga_axilite_read_req in address req phase = 00000000 - tvalid
                2245=> fpga_axilite_read_req in address req phase = 00000000 - transfer
                3285=> get soc_to_fpga_axilite_read_cpl_captured be : soc_to_fpga_axilite_read_cpl_captured =xxxxxxxx, fpga_is_as_tdata=00000004
                3285=> get soc_to_fpga_axilite_read_cpl_captured af : soc_to_fpga_axilite_read_cpl_captured =00000004, fpga_is_as_tdata=00000004
                3285=> soc_to_fpga_axilite_read_cpl_captured : send soc_to_fpga_axilite_read_cpl_event
------ check data length ------
                6365=> fpga_axilite_read_req in address req phase = 00000010 - tvalid
                6405=> fpga_axilite_read_req in address req phase = 00000010 - transfer
               10125=> get soc_to_fpga_axilite_read_cpl_captured be : soc_to_fpga_axilite_read_cpl_captured =00000004, fpga_is_as_tdata=00000040
               10125=> get soc_to_fpga_axilite_read_cpl_captured af : soc_to_fpga_axilite_read_cpl_captured =00000040, fpga_is_as_tdata=00000040
               10125=> soc_to_fpga_axilite_read_cpl_captured : send soc_to_fpga_axilite_read_cpl_event
               10125[PASS] golden_data=00000040, read_data=00000040
------ check tap parameters ------
               10125=> fpga_axilite_read_req in address req phase = 00000020 - tvalid
               10165=> fpga_axilite_read_req in address req phase = 00000020 - transfer
               11165=> get soc_to_fpga_axilite_read_cpl_captured be : soc_to_fpga_axilite_read_cpl_captured =00000040, fpga_is_as_tdata=00000000
               11165=> get soc_to_fpga_axilite_read_cpl_captured af : soc_to_fpga_axilite_read_cpl_captured =00000000, fpga_is_as_tdata=00000000
               11165=> soc_to_fpga_axilite_read_cpl_captured : send soc_to_fpga_axilite_read_cpl_event
               11165[PASS] golden_data=00000000, read_data=00000000
               11165=> fpga_axilite_read_req in address req phase = 00000024 - tvalid
               11205=> fpga_axilite_read_req in address req phase = 00000024 - transfer
               12205=> get soc_to_fpga_axilite_read_cpl_captured be : soc_to_fpga_axilite_read_cpl_captured =00000000, fpga_is_as_tdata=fffffff6
               12205=> get soc_to_fpga_axilite_read_cpl_captured af : soc_to_fpga_axilite_read_cpl_captured =fffffff6, fpga_is_as_tdata=fffffff6
               12205=> soc_to_fpga_axilite_read_cpl_captured : send soc_to_fpga_axilite_read_cpl_event
               12205[PASS] golden_data=fffffff6, read_data=fffffff6
               12205=> fpga_axilite_read_req in address req phase = 00000028 - tvalid
               12245=> fpga_axilite_read_req in address req phase = 00000028 - transfer
               13245=> get soc_to_fpga_axilite_read_cpl_captured be : soc_to_fpga_axilite_read_cpl_captured =fffffff6, fpga_is_as_tdata=fffffff7
               13245=> get soc_to_fpga_axilite_read_cpl_captured af : soc_to_fpga_axilite_read_cpl_captured =fffffff7, fpga_is_as_tdata=fffffff7
               13245=> soc_to_fpga_axilite_read_cpl_captured : send soc_to_fpga_axilite_read_cpl_event
               13245[PASS] golden_data=fffffff7, read_data=fffffff7
               13245=> fpga_axilite_read_req in address req phase = 0000002c - tvalid
               13285=> fpga_axilite_read_req in address req phase = 0000002c - transfer
               14285=> get soc_to_fpga_axilite_read_cpl_captured be : soc_to_fpga_axilite_read_cpl_captured =fffffff7, fpga_is_as_tdata=00000017
               14285=> get soc_to_fpga_axilite_read_cpl_captured af : soc_to_fpga_axilite_read_cpl_captured =00000017, fpga_is_as_tdata=00000017
               14285=> soc_to_fpga_axilite_read_cpl_captured : send soc_to_fpga_axilite_read_cpl_event
               14285[PASS] golden_data=00000017, read_data=00000017
               14285=> fpga_axilite_read_req in address req phase = 00000030 - tvalid
               14325=> fpga_axilite_read_req in address req phase = 00000030 - transfer
               15325=> get soc_to_fpga_axilite_read_cpl_captured be : soc_to_fpga_axilite_read_cpl_captured =00000017, fpga_is_as_tdata=00000038
               15325=> get soc_to_fpga_axilite_read_cpl_captured af : soc_to_fpga_axilite_read_cpl_captured =00000038, fpga_is_as_tdata=00000038
               15325=> soc_to_fpga_axilite_read_cpl_captured : send soc_to_fpga_axilite_read_cpl_event
               15325[PASS] golden_data=00000038, read_data=00000038
               15325=> fpga_axilite_read_req in address req phase = 00000034 - tvalid
               15365=> fpga_axilite_read_req in address req phase = 00000034 - transfer
               16365=> get soc_to_fpga_axilite_read_cpl_captured be : soc_to_fpga_axilite_read_cpl_captured =00000038, fpga_is_as_tdata=0000003f
               16365=> get soc_to_fpga_axilite_read_cpl_captured af : soc_to_fpga_axilite_read_cpl_captured =0000003f, fpga_is_as_tdata=0000003f
               16365=> soc_to_fpga_axilite_read_cpl_captured : send soc_to_fpga_axilite_read_cpl_event
               16365[PASS] golden_data=0000003f, read_data=0000003f
               16365=> fpga_axilite_read_req in address req phase = 00000038 - tvalid
               16405=> fpga_axilite_read_req in address req phase = 00000038 - transfer
               17405=> get soc_to_fpga_axilite_read_cpl_captured be : soc_to_fpga_axilite_read_cpl_captured =0000003f, fpga_is_as_tdata=00000038
               17405=> get soc_to_fpga_axilite_read_cpl_captured af : soc_to_fpga_axilite_read_cpl_captured =00000038, fpga_is_as_tdata=00000038
               17405=> soc_to_fpga_axilite_read_cpl_captured : send soc_to_fpga_axilite_read_cpl_event
               17405[PASS] golden_data=00000038, read_data=00000038
               17405=> fpga_axilite_read_req in address req phase = 0000003c - tvalid
               17445=> fpga_axilite_read_req in address req phase = 0000003c - transfer
               18445=> get soc_to_fpga_axilite_read_cpl_captured be : soc_to_fpga_axilite_read_cpl_captured =00000038, fpga_is_as_tdata=00000017
               18445=> get soc_to_fpga_axilite_read_cpl_captured af : soc_to_fpga_axilite_read_cpl_captured =00000017, fpga_is_as_tdata=00000017
               18445=> soc_to_fpga_axilite_read_cpl_captured : send soc_to_fpga_axilite_read_cpl_event
               18445[PASS] golden_data=00000017, read_data=00000017
               18445=> fpga_axilite_read_req in address req phase = 00000040 - tvalid
               18485=> fpga_axilite_read_req in address req phase = 00000040 - transfer
               19485=> get soc_to_fpga_axilite_read_cpl_captured be : soc_to_fpga_axilite_read_cpl_captured =00000017, fpga_is_as_tdata=fffffff7
               19485=> get soc_to_fpga_axilite_read_cpl_captured af : soc_to_fpga_axilite_read_cpl_captured =fffffff7, fpga_is_as_tdata=fffffff7
               19485=> soc_to_fpga_axilite_read_cpl_captured : send soc_to_fpga_axilite_read_cpl_event
               19485[PASS] golden_data=fffffff7, read_data=fffffff7
               19485=> fpga_axilite_read_req in address req phase = 00000044 - tvalid
               19525=> fpga_axilite_read_req in address req phase = 00000044 - transfer
               20525=> get soc_to_fpga_axilite_read_cpl_captured be : soc_to_fpga_axilite_read_cpl_captured =fffffff7, fpga_is_as_tdata=fffffff6
               20525=> get soc_to_fpga_axilite_read_cpl_captured af : soc_to_fpga_axilite_read_cpl_captured =fffffff6, fpga_is_as_tdata=fffffff6
               20525=> soc_to_fpga_axilite_read_cpl_captured : send soc_to_fpga_axilite_read_cpl_event
               20525[PASS] golden_data=fffffff6, read_data=fffffff6
               20525=> fpga_axilite_read_req in address req phase = 00000048 - tvalid
               20565=> fpga_axilite_read_req in address req phase = 00000048 - transfer
               21565=> get soc_to_fpga_axilite_read_cpl_captured be : soc_to_fpga_axilite_read_cpl_captured =fffffff6, fpga_is_as_tdata=00000000
               21565=> get soc_to_fpga_axilite_read_cpl_captured af : soc_to_fpga_axilite_read_cpl_captured =00000000, fpga_is_as_tdata=00000000
               21565=> soc_to_fpga_axilite_read_cpl_captured : send soc_to_fpga_axilite_read_cpl_event
               21565[PASS] golden_data=00000000, read_data=00000000
------ ap_start ------
               21645=> fpga_axis_req send data, fpga_as_is_tupsb = 00001, fpga_as_is_tstrb = 0000, fpga_as_is_tkeep = 0000, fpga_as_is_tlast = 0, fpga_as_is_tdata = 00000000
               22845[PASS] golden_data=00000000, read_data=00000000
               22845=> get soc_to_fpga_axis be : soc_to_fpga_axis_captured_count=         0,  soc_to_fpga_axis_captured[         0] =xxxxxxxxxxxx, fpga_is_as_tupsb=00, fpga_is_as_tstrb=0, fpga_is_as_tkeep=0 , fpga_is_as_tlast=0, fpga_is_as_tdata=00000000
               22845=> get soc_to_fpga_axis af : soc_to_fpga_axis_captured_count=         0,  soc_to_fpga_axis_captured[         0] =000000000000, fpga_is_as_tupsb=00, fpga_is_as_tstrb=0, fpga_is_as_tkeep=0 , fpga_is_as_tlast=0, fpga_is_as_tdata=00000000
               22845=> fpga_axis_req send data, fpga_as_is_tupsb = 00000, fpga_as_is_tstrb = 0000, fpga_as_is_tkeep = 0000, fpga_as_is_tlast = 0, fpga_as_is_tdata = 00000001
               23405[PASS] golden_data=00000000, read_data=00000000
               23405=> get soc_to_fpga_axis be : soc_to_fpga_axis_captured_count=         1,  soc_to_fpga_axis_captured[         1] =xxxxxxxxxxxx, fpga_is_as_tupsb=00, fpga_is_as_tstrb=0, fpga_is_as_tkeep=0 , fpga_is_as_tlast=0, fpga_is_as_tdata=00000000
               23405=> get soc_to_fpga_axis af : soc_to_fpga_axis_captured_count=         1,  soc_to_fpga_axis_captured[         1] =000000000000, fpga_is_as_tupsb=00, fpga_is_as_tstrb=0, fpga_is_as_tkeep=0 , fpga_is_as_tlast=0, fpga_is_as_tdata=00000000
               23405=> fpga_axis_req send data, fpga_as_is_tupsb = 00000, fpga_as_is_tstrb = 0000, fpga_as_is_tkeep = 0000, fpga_as_is_tlast = 0, fpga_as_is_tdata = 00000002
               24005[PASS] golden_data=fffffff6, read_data=fffffff6
               24005=> get soc_to_fpga_axis be : soc_to_fpga_axis_captured_count=         2,  soc_to_fpga_axis_captured[         2] =xxxxxxxxxxxx, fpga_is_as_tupsb=00, fpga_is_as_tstrb=0, fpga_is_as_tkeep=0 , fpga_is_as_tlast=0, fpga_is_as_tdata=fffffff6
               24005=> get soc_to_fpga_axis af : soc_to_fpga_axis_captured_count=         2,  soc_to_fpga_axis_captured[         2] =0000fffffff6, fpga_is_as_tupsb=00, fpga_is_as_tstrb=0, fpga_is_as_tkeep=0 , fpga_is_as_tlast=0, fpga_is_as_tdata=fffffff6
               24005=> fpga_axis_req send data, fpga_as_is_tupsb = 00000, fpga_as_is_tstrb = 0000, fpga_as_is_tkeep = 0000, fpga_as_is_tlast = 0, fpga_as_is_tdata = 00000003
               24645[PASS] golden_data=ffffffe3, read_data=ffffffe3
               24645=> get soc_to_fpga_axis be : soc_to_fpga_axis_captured_count=         3,  soc_to_fpga_axis_captured[         3] =xxxxxxxxxxxx, fpga_is_as_tupsb=00, fpga_is_as_tstrb=0, fpga_is_as_tkeep=0 , fpga_is_as_tlast=0, fpga_is_as_tdata=ffffffe3
               24645=> get soc_to_fpga_axis af : soc_to_fpga_axis_captured_count=         3,  soc_to_fpga_axis_captured[         3] =0000ffffffe3, fpga_is_as_tupsb=00, fpga_is_as_tstrb=0, fpga_is_as_tkeep=0 , fpga_is_as_tlast=0, fpga_is_as_tdata=ffffffe3
               24645=> fpga_axis_req send data, fpga_as_is_tupsb = 00000, fpga_as_is_tstrb = 0000, fpga_as_is_tkeep = 0000, fpga_as_is_tlast = 0, fpga_as_is_tdata = 00000004
               25325[PASS] golden_data=ffffffe7, read_data=ffffffe7
               25325=> get soc_to_fpga_axis be : soc_to_fpga_axis_captured_count=         4,  soc_to_fpga_axis_captured[         4] =xxxxxxxxxxxx, fpga_is_as_tupsb=00, fpga_is_as_tstrb=0, fpga_is_as_tkeep=0 , fpga_is_as_tlast=0, fpga_is_as_tdata=ffffffe7
               25325=> get soc_to_fpga_axis af : soc_to_fpga_axis_captured_count=         4,  soc_to_fpga_axis_captured[         4] =0000ffffffe7, fpga_is_as_tupsb=00, fpga_is_as_tstrb=0, fpga_is_as_tkeep=0 , fpga_is_as_tlast=0, fpga_is_as_tdata=ffffffe7
               25325=> fpga_axis_req send data, fpga_as_is_tupsb = 00000, fpga_as_is_tstrb = 0000, fpga_as_is_tkeep = 0000, fpga_as_is_tlast = 0, fpga_as_is_tdata = 00000005
               26045[PASS] golden_data=00000023, read_data=00000023
               26045=> get soc_to_fpga_axis be : soc_to_fpga_axis_captured_count=         5,  soc_to_fpga_axis_captured[         5] =xxxxxxxxxxxx, fpga_is_as_tupsb=00, fpga_is_as_tstrb=0, fpga_is_as_tkeep=0 , fpga_is_as_tlast=0, fpga_is_as_tdata=00000023
               26045=> get soc_to_fpga_axis af : soc_to_fpga_axis_captured_count=         5,  soc_to_fpga_axis_captured[         5] =000000000023, fpga_is_as_tupsb=00, fpga_is_as_tstrb=0, fpga_is_as_tkeep=0 , fpga_is_as_tlast=0, fpga_is_as_tdata=00000023
               26045=> fpga_axis_req send data, fpga_as_is_tupsb = 00000, fpga_as_is_tstrb = 0000, fpga_as_is_tkeep = 0000, fpga_as_is_tlast = 0, fpga_as_is_tdata = 00000006
               26805[PASS] golden_data=0000009e, read_data=0000009e
               26805=> get soc_to_fpga_axis be : soc_to_fpga_axis_captured_count=         6,  soc_to_fpga_axis_captured[         6] =xxxxxxxxxxxx, fpga_is_as_tupsb=00, fpga_is_as_tstrb=0, fpga_is_as_tkeep=0 , fpga_is_as_tlast=0, fpga_is_as_tdata=0000009e
               26805=> get soc_to_fpga_axis af : soc_to_fpga_axis_captured_count=         6,  soc_to_fpga_axis_captured[         6] =00000000009e, fpga_is_as_tupsb=00, fpga_is_as_tstrb=0, fpga_is_as_tkeep=0 , fpga_is_as_tlast=0, fpga_is_as_tdata=0000009e
               26805=> fpga_axis_req send data, fpga_as_is_tupsb = 00000, fpga_as_is_tstrb = 0000, fpga_as_is_tkeep = 0000, fpga_as_is_tlast = 0, fpga_as_is_tdata = 00000007
               27605[PASS] golden_data=00000151, read_data=00000151
               27605=> get soc_to_fpga_axis be : soc_to_fpga_axis_captured_count=         7,  soc_to_fpga_axis_captured[         7] =xxxxxxxxxxxx, fpga_is_as_tupsb=00, fpga_is_as_tstrb=0, fpga_is_as_tkeep=0 , fpga_is_as_tlast=0, fpga_is_as_tdata=00000151
               27605=> get soc_to_fpga_axis af : soc_to_fpga_axis_captured_count=         7,  soc_to_fpga_axis_captured[         7] =000000000151, fpga_is_as_tupsb=00, fpga_is_as_tstrb=0, fpga_is_as_tkeep=0 , fpga_is_as_tlast=0, fpga_is_as_tdata=00000151
               27605=> fpga_axis_req send data, fpga_as_is_tupsb = 00000, fpga_as_is_tstrb = 0000, fpga_as_is_tkeep = 0000, fpga_as_is_tlast = 0, fpga_as_is_tdata = 00000008
               28445[PASS] golden_data=0000021b, read_data=0000021b
               28445=> get soc_to_fpga_axis be : soc_to_fpga_axis_captured_count=         8,  soc_to_fpga_axis_captured[         8] =xxxxxxxxxxxx, fpga_is_as_tupsb=00, fpga_is_as_tstrb=0, fpga_is_as_tkeep=0 , fpga_is_as_tlast=0, fpga_is_as_tdata=0000021b
               28445=> get soc_to_fpga_axis af : soc_to_fpga_axis_captured_count=         8,  soc_to_fpga_axis_captured[         8] =00000000021b, fpga_is_as_tupsb=00, fpga_is_as_tstrb=0, fpga_is_as_tkeep=0 , fpga_is_as_tlast=0, fpga_is_as_tdata=0000021b
               28445=> fpga_axis_req send data, fpga_as_is_tupsb = 00000, fpga_as_is_tstrb = 0000, fpga_as_is_tkeep = 0000, fpga_as_is_tlast = 0, fpga_as_is_tdata = 00000009
               29325[PASS] golden_data=000002dc, read_data=000002dc
               29325=> get soc_to_fpga_axis be : soc_to_fpga_axis_captured_count=         9,  soc_to_fpga_axis_captured[         9] =xxxxxxxxxxxx, fpga_is_as_tupsb=00, fpga_is_as_tstrb=0, fpga_is_as_tkeep=0 , fpga_is_as_tlast=0, fpga_is_as_tdata=000002dc
               29325=> get soc_to_fpga_axis af : soc_to_fpga_axis_captured_count=         9,  soc_to_fpga_axis_captured[         9] =0000000002dc, fpga_is_as_tupsb=00, fpga_is_as_tstrb=0, fpga_is_as_tkeep=0 , fpga_is_as_tlast=0, fpga_is_as_tdata=000002dc
               29325=> fpga_axis_req send data, fpga_as_is_tupsb = 00000, fpga_as_is_tstrb = 0000, fpga_as_is_tkeep = 0000, fpga_as_is_tlast = 0, fpga_as_is_tdata = 0000000a
               30245[PASS] golden_data=00000393, read_data=00000393
               30245=> get soc_to_fpga_axis be : soc_to_fpga_axis_captured_count=        10,  soc_to_fpga_axis_captured[        10] =xxxxxxxxxxxx, fpga_is_as_tupsb=00, fpga_is_as_tstrb=0, fpga_is_as_tkeep=0 , fpga_is_as_tlast=0, fpga_is_as_tdata=00000393
               30245=> get soc_to_fpga_axis af : soc_to_fpga_axis_captured_count=        10,  soc_to_fpga_axis_captured[        10] =000000000393, fpga_is_as_tupsb=00, fpga_is_as_tstrb=0, fpga_is_as_tkeep=0 , fpga_is_as_tlast=0, fpga_is_as_tdata=00000393
               30245=> fpga_axis_req send data, fpga_as_is_tupsb = 00000, fpga_as_is_tstrb = 0000, fpga_as_is_tkeep = 0000, fpga_as_is_tlast = 0, fpga_as_is_tdata = 0000000b
               31165[PASS] golden_data=0000044a, read_data=0000044a
               31165=> get soc_to_fpga_axis be : soc_to_fpga_axis_captured_count=        11,  soc_to_fpga_axis_captured[        11] =xxxxxxxxxxxx, fpga_is_as_tupsb=00, fpga_is_as_tstrb=0, fpga_is_as_tkeep=0 , fpga_is_as_tlast=0, fpga_is_as_tdata=0000044a
               31165=> get soc_to_fpga_axis af : soc_to_fpga_axis_captured_count=        11,  soc_to_fpga_axis_captured[        11] =00000000044a, fpga_is_as_tupsb=00, fpga_is_as_tstrb=0, fpga_is_as_tkeep=0 , fpga_is_as_tlast=0, fpga_is_as_tdata=0000044a
               31165=> fpga_axis_req send data, fpga_as_is_tupsb = 00000, fpga_as_is_tstrb = 0000, fpga_as_is_tkeep = 0000, fpga_as_is_tlast = 0, fpga_as_is_tdata = 0000000c
               32085[PASS] golden_data=00000501, read_data=00000501
               32085=> get soc_to_fpga_axis be : soc_to_fpga_axis_captured_count=        12,  soc_to_fpga_axis_captured[        12] =xxxxxxxxxxxx, fpga_is_as_tupsb=00, fpga_is_as_tstrb=0, fpga_is_as_tkeep=0 , fpga_is_as_tlast=0, fpga_is_as_tdata=00000501
               32085=> get soc_to_fpga_axis af : soc_to_fpga_axis_captured_count=        12,  soc_to_fpga_axis_captured[        12] =000000000501, fpga_is_as_tupsb=00, fpga_is_as_tstrb=0, fpga_is_as_tkeep=0 , fpga_is_as_tlast=0, fpga_is_as_tdata=00000501
               32085=> fpga_axis_req send data, fpga_as_is_tupsb = 00000, fpga_as_is_tstrb = 0000, fpga_as_is_tkeep = 0000, fpga_as_is_tlast = 0, fpga_as_is_tdata = 0000000d
               33005[PASS] golden_data=000005b8, read_data=000005b8
               33005=> get soc_to_fpga_axis be : soc_to_fpga_axis_captured_count=        13,  soc_to_fpga_axis_captured[        13] =xxxxxxxxxxxx, fpga_is_as_tupsb=00, fpga_is_as_tstrb=0, fpga_is_as_tkeep=0 , fpga_is_as_tlast=0, fpga_is_as_tdata=000005b8
               33005=> get soc_to_fpga_axis af : soc_to_fpga_axis_captured_count=        13,  soc_to_fpga_axis_captured[        13] =0000000005b8, fpga_is_as_tupsb=00, fpga_is_as_tstrb=0, fpga_is_as_tkeep=0 , fpga_is_as_tlast=0, fpga_is_as_tdata=000005b8
               33005=> fpga_axis_req send data, fpga_as_is_tupsb = 00000, fpga_as_is_tstrb = 0000, fpga_as_is_tkeep = 0000, fpga_as_is_tlast = 0, fpga_as_is_tdata = 0000000e
               33925[PASS] golden_data=0000066f, read_data=0000066f
               33925=> get soc_to_fpga_axis be : soc_to_fpga_axis_captured_count=        14,  soc_to_fpga_axis_captured[        14] =xxxxxxxxxxxx, fpga_is_as_tupsb=00, fpga_is_as_tstrb=0, fpga_is_as_tkeep=0 , fpga_is_as_tlast=0, fpga_is_as_tdata=0000066f
               33925=> get soc_to_fpga_axis af : soc_to_fpga_axis_captured_count=        14,  soc_to_fpga_axis_captured[        14] =00000000066f, fpga_is_as_tupsb=00, fpga_is_as_tstrb=0, fpga_is_as_tkeep=0 , fpga_is_as_tlast=0, fpga_is_as_tdata=0000066f
               33925=> fpga_axis_req send data, fpga_as_is_tupsb = 00000, fpga_as_is_tstrb = 0000, fpga_as_is_tkeep = 0000, fpga_as_is_tlast = 0, fpga_as_is_tdata = 0000000f
               34845[PASS] golden_data=00000726, read_data=00000726
               34845=> get soc_to_fpga_axis be : soc_to_fpga_axis_captured_count=        15,  soc_to_fpga_axis_captured[        15] =xxxxxxxxxxxx, fpga_is_as_tupsb=00, fpga_is_as_tstrb=0, fpga_is_as_tkeep=0 , fpga_is_as_tlast=0, fpga_is_as_tdata=00000726
               34845=> get soc_to_fpga_axis af : soc_to_fpga_axis_captured_count=        15,  soc_to_fpga_axis_captured[        15] =000000000726, fpga_is_as_tupsb=00, fpga_is_as_tstrb=0, fpga_is_as_tkeep=0 , fpga_is_as_tlast=0, fpga_is_as_tdata=00000726
               34845=> fpga_axis_req send data, fpga_as_is_tupsb = 00000, fpga_as_is_tstrb = 0000, fpga_as_is_tkeep = 0000, fpga_as_is_tlast = 0, fpga_as_is_tdata = 00000010
               35765[PASS] golden_data=000007dd, read_data=000007dd
               35765=> get soc_to_fpga_axis be : soc_to_fpga_axis_captured_count=        16,  soc_to_fpga_axis_captured[        16] =xxxxxxxxxxxx, fpga_is_as_tupsb=00, fpga_is_as_tstrb=0, fpga_is_as_tkeep=0 , fpga_is_as_tlast=0, fpga_is_as_tdata=000007dd
               35765=> get soc_to_fpga_axis af : soc_to_fpga_axis_captured_count=        16,  soc_to_fpga_axis_captured[        16] =0000000007dd, fpga_is_as_tupsb=00, fpga_is_as_tstrb=0, fpga_is_as_tkeep=0 , fpga_is_as_tlast=0, fpga_is_as_tdata=000007dd
               35765=> fpga_axis_req send data, fpga_as_is_tupsb = 00000, fpga_as_is_tstrb = 0000, fpga_as_is_tkeep = 0000, fpga_as_is_tlast = 0, fpga_as_is_tdata = 00000011
               36685[PASS] golden_data=00000894, read_data=00000894
               36685=> get soc_to_fpga_axis be : soc_to_fpga_axis_captured_count=        17,  soc_to_fpga_axis_captured[        17] =xxxxxxxxxxxx, fpga_is_as_tupsb=00, fpga_is_as_tstrb=0, fpga_is_as_tkeep=0 , fpga_is_as_tlast=0, fpga_is_as_tdata=00000894
               36685=> get soc_to_fpga_axis af : soc_to_fpga_axis_captured_count=        17,  soc_to_fpga_axis_captured[        17] =000000000894, fpga_is_as_tupsb=00, fpga_is_as_tstrb=0, fpga_is_as_tkeep=0 , fpga_is_as_tlast=0, fpga_is_as_tdata=00000894
               36685=> fpga_axis_req send data, fpga_as_is_tupsb = 00000, fpga_as_is_tstrb = 0000, fpga_as_is_tkeep = 0000, fpga_as_is_tlast = 0, fpga_as_is_tdata = 00000012
               37605[PASS] golden_data=0000094b, read_data=0000094b
               37605=> get soc_to_fpga_axis be : soc_to_fpga_axis_captured_count=        18,  soc_to_fpga_axis_captured[        18] =xxxxxxxxxxxx, fpga_is_as_tupsb=00, fpga_is_as_tstrb=0, fpga_is_as_tkeep=0 , fpga_is_as_tlast=0, fpga_is_as_tdata=0000094b
               37605=> get soc_to_fpga_axis af : soc_to_fpga_axis_captured_count=        18,  soc_to_fpga_axis_captured[        18] =00000000094b, fpga_is_as_tupsb=00, fpga_is_as_tstrb=0, fpga_is_as_tkeep=0 , fpga_is_as_tlast=0, fpga_is_as_tdata=0000094b
               37605=> fpga_axis_req send data, fpga_as_is_tupsb = 00000, fpga_as_is_tstrb = 0000, fpga_as_is_tkeep = 0000, fpga_as_is_tlast = 0, fpga_as_is_tdata = 00000013
               38525[PASS] golden_data=00000a02, read_data=00000a02
               38525=> get soc_to_fpga_axis be : soc_to_fpga_axis_captured_count=        19,  soc_to_fpga_axis_captured[        19] =xxxxxxxxxxxx, fpga_is_as_tupsb=00, fpga_is_as_tstrb=0, fpga_is_as_tkeep=0 , fpga_is_as_tlast=0, fpga_is_as_tdata=00000a02
               38525=> get soc_to_fpga_axis af : soc_to_fpga_axis_captured_count=        19,  soc_to_fpga_axis_captured[        19] =000000000a02, fpga_is_as_tupsb=00, fpga_is_as_tstrb=0, fpga_is_as_tkeep=0 , fpga_is_as_tlast=0, fpga_is_as_tdata=00000a02
               38525=> fpga_axis_req send data, fpga_as_is_tupsb = 00000, fpga_as_is_tstrb = 0000, fpga_as_is_tkeep = 0000, fpga_as_is_tlast = 0, fpga_as_is_tdata = 00000014
               39445[PASS] golden_data=00000ab9, read_data=00000ab9
               39445=> get soc_to_fpga_axis be : soc_to_fpga_axis_captured_count=        20,  soc_to_fpga_axis_captured[        20] =xxxxxxxxxxxx, fpga_is_as_tupsb=00, fpga_is_as_tstrb=0, fpga_is_as_tkeep=0 , fpga_is_as_tlast=0, fpga_is_as_tdata=00000ab9
               39445=> get soc_to_fpga_axis af : soc_to_fpga_axis_captured_count=        20,  soc_to_fpga_axis_captured[        20] =000000000ab9, fpga_is_as_tupsb=00, fpga_is_as_tstrb=0, fpga_is_as_tkeep=0 , fpga_is_as_tlast=0, fpga_is_as_tdata=00000ab9
               39445=> fpga_axis_req send data, fpga_as_is_tupsb = 00000, fpga_as_is_tstrb = 0000, fpga_as_is_tkeep = 0000, fpga_as_is_tlast = 0, fpga_as_is_tdata = 00000015
               40365[PASS] golden_data=00000b70, read_data=00000b70
